<svg width="10" height="16" viewBox="0 0 10 16" fill="none" xmlns="http://www.w3.org/2000/svg">
<path d="M9.92769 7.60246L1.9685 15.925C1.78523 16.1138 1.47978 15.916 1.56705 15.6644L2.44849 13.1568L3.05067 11.4312L3.73139 9.48986C3.78375 9.33707 3.67902 9.16631 3.52194 9.15732L0.223061 8.88769C0.0223358 8.86972 -0.0736632 8.61806 0.0659717 8.46527L3.45212 4.85224L4.22011 4.03436L7.92916 0.0797919C8.04262 -0.0460352 8.20843 -0.0100846 8.2957 0.0977672C8.34807 0.160681 8.37425 0.259545 8.33061 0.358409L5.66882 6.5509C5.599 6.71268 5.70373 6.89243 5.87827 6.90142L9.7706 7.18004C9.85787 7.18903 9.92769 7.24295 9.97132 7.31485C10.015 7.40473 10.015 7.52157 9.92769 7.60246Z" fill="#621CD1"/>
</svg>
